Core Enrichment Functions – EnrichGT Documents
…
Remember to load AnnotationDbi object

Most of errors are caused by this. Please load Like AnnotationDbi like org.Hs.eg.db before doing enrichment.

Then we start ORA:

ora_result <- egt_enrichment_analysis(genes = DEGexample_UpReg$...1,database = database_GO_BP(org.Hs.eg.db))

✔ success loaded database, time used : 17.7599568367004 sec.

✔ Done ORA in 0.126555919647217 sec.

ora_result |> as_tibble() # You don't need to call as_tibble, this is just for better printing

# A tibble: 2,979 × 9
   ID       Description GeneRatio BgRatio   pvalue p.adjust  qvalue geneID Count
   <chr>    <chr>       <chr>     <chr>      <dbl>    <dbl>   <dbl> <chr>  <int>
 1 GO:0035… synaptic t… 19/457    111/18… 2.06e-11  8.05e-8 8.41e-5 ATP1A…    19
 2 GO:0051… regulation… 16/457    79/188… 5.74e-11  8.05e-8 8.41e-5 ATP1A…    16
 3 GO:0050… modulation… 39/457    489/18… 7.26e-11  8.05e-8 8.41e-5 ACHE/…    39
 4 GO:0099… regulation… 39/457    490/18… 7.71e-11  8.05e-8 8.41e-5 ACHE/…    39
 5 GO:0050… synapse or… 36/457    483/18… 2.51e- 9  2.10e-6 1.11e-3 ACHE/…    36
 6 GO:0048… regulation… 12/457    56/188… 7.50e- 9  4.18e-6 1.11e-3 APOE/…    12
 7 GO:0007… mitotic sp… 11/457    46/188… 9.27e- 9  4.18e-6 1.11e-3 BIRC5…    11
 8 GO:0071… mitotic sp… 11/457    46/188… 9.27e- 9  4.18e-6 1.11e-3 BIRC5…    11
 9 GO:0071… spindle as… 11/457    46/188… 9.27e- 9  4.18e-6 1.11e-3 BIRC5…    11
10 GO:0031… spindle ch… 11/457    47/188… 1.18e- 8  4.18e-6 1.11e-3 BIRC5…    11
# ℹ 2,969 more rows
…
✔ Use cached database: GO_BP_org.Hs.eg.db

Warning in preparePathwaysAndStats(pathways, stats, minSize, maxSize, gseaParam, : There are ties in the preranked stats (0.02% of the list).
The order of those tied genes will be arbitrary, which may produce unexpected results.

✔ Sucessful GSEA, time last 9.38172602653503 secs.

resGSEA |> as_tibble() # You don't need to call as_tibble, this is just for better printing

# A tibble: 3,846 × 7
   ID         Description              ES   NES  pvalue p.adjust core_enrichment
   <chr>      <chr>                 <dbl> <dbl>   <dbl>    <dbl> <chr>          
 1 GO:0050907 detection of chemica… 0.767  1.95 2.46e-4 0.00498  OR51E1/CST1/OR…
 2 GO:0060078 regulation of postsy… 0.564  1.94 4.62e-6 0.000193 GRIK3/HCN1/GRM…
 3 GO:0035249 synaptic transmissio… 0.560  1.91 1.64e-5 0.000554 GRIK3/UNC13C/G…
 4 GO:0050906 detection of stimulu… 0.594  1.89 8.12e-5 0.00209  OR51E1/CST1/OR…
 5 GO:0007216 G protein-coupled gl… 0.840  1.89 3.35e-4 0.00632  GRIK3/GRM1/GRM…
 6 GO:0061982 meiosis I cell cycle… 0.553  1.87 4.67e-5 0.00132  SPATA22/KASH5/…
 7 GO:0007628 adult walking behavi… 0.717  1.87 6.65e-4 0.0101   ZIC1/CNTN2/CAC…
 8 GO:0051966 regulation of synapt… 0.581  1.86 9.89e-5 0.00246  GRIK3/GRM1/CAC…
 9 GO:0035235 ionotropic glutamate… 0.718  1.86 7.07e-4 0.0106   GRIK3/GRIA4/GR…
10 GO:0031577 spindle checkpoint s… 0.627  1.85 9.99e-4 0.0136   SPC24/BIRC5/PL…
# ℹ 3,836 more rows
…
