EnrichGT – EnrichGT Documents
…
Then we start ORA:

ora_result <- egt_enrichment_analysis(genes = DEGexample_UpReg$...1,database = database_GO_BP(org.Hs.eg.db))

✔ success loaded database, time used : 17.9219570159912 sec.

✔ Done ORA in 0.138438940048218 sec.

ora_result |> as_tibble() # You don't need to call as_tibble, this is just for better printing

# A tibble: 2,979 × 9
   ID       Description GeneRatio BgRatio   pvalue p.adjust  qvalue geneID Count
   <chr>    <chr>       <chr>     <chr>      <dbl>    <dbl>   <dbl> <chr>  <int>
 1 GO:0035… synaptic t… 19/457    111/18… 2.06e-11  8.05e-8 8.41e-5 ATP1A…    19
 2 GO:0051… regulation… 16/457    79/188… 5.74e-11  8.05e-8 8.41e-5 ATP1A…    16
 3 GO:0050… modulation… 39/457    489/18… 7.26e-11  8.05e-8 8.41e-5 ACHE/…    39
 4 GO:0099… regulation… 39/457    490/18… 7.71e-11  8.05e-8 8.41e-5 ACHE/…    39
 5 GO:0050… synapse or… 36/457    483/18… 2.51e- 9  2.10e-6 1.11e-3 ACHE/…    36
 6 GO:0048… regulation… 12/457    56/188… 7.50e- 9  4.18e-6 1.11e-3 APOE/…    12
 7 GO:0007… mitotic sp… 11/457    46/188… 9.27e- 9  4.18e-6 1.11e-3 BIRC5…    11
 8 GO:0071… mitotic sp… 11/457    46/188… 9.27e- 9  4.18e-6 1.11e-3 BIRC5…    11
 9 GO:0071… spindle as… 11/457    46/188… 9.27e- 9  4.18e-6 1.11e-3 BIRC5…    11
10 GO:0031… spindle ch… 11/457    47/188… 1.18e- 8  4.18e-6 1.11e-3 BIRC5…    11
# ℹ 2,969 more rows
…
✔ Use cached database: GO_BP_org.Hs.eg.db

Warning in preparePathwaysAndStats(pathways, stats, minSize, maxSize, gseaParam, : There are ties in the preranked stats (0.02% of the list).
The order of those tied genes will be arbitrary, which may produce unexpected results.

✔ Sucessful GSEA, time last 8.16707611083984 secs.

resGSEA |> as_tibble() # You don't need to call as_tibble, this is just for better printing

# A tibble: 3,823 × 7
   ID         Description              ES   NES  pvalue p.adjust core_enrichment
   <chr>      <chr>                 <dbl> <dbl>   <dbl>    <dbl> <chr>          
 1 GO:0060078 regulation of postsy… 0.564  1.94 6.34e-6 0.000240 GRIK3/HCN1/GRM…
 2 GO:0050907 detection of chemica… 0.767  1.92 1.32e-4 0.00301  OR51E1/CST1/OR…
 3 GO:0035249 synaptic transmissio… 0.560  1.91 1.70e-5 0.000562 GRIK3/UNC13C/G…
 4 GO:0007216 G protein-coupled gl… 0.840  1.91 1.58e-4 0.00342  GRIK3/GRM1/GRM…
 5 GO:0050906 detection of stimulu… 0.594  1.90 6.25e-5 0.00164  OR51E1/CST1/OR…
 6 GO:0051966 regulation of synapt… 0.581  1.87 7.54e-5 0.00193  GRIK3/GRM1/CAC…
 7 GO:0007628 adult walking behavi… 0.717  1.87 3.85e-4 0.00657  ZIC1/CNTN2/CAC…
 8 GO:0061982 meiosis I cell cycle… 0.553  1.86 4.32e-5 0.00124  SPATA22/KASH5/…
 9 GO:0045132 meiotic chromosome s… 0.587  1.86 1.55e-4 0.00339  SPATA22/KASH5/…
10 GO:0035235 ionotropic glutamate… 0.718  1.84 5.92e-4 0.00882  GRIK3/GRIA4/GR…
# ℹ 3,813 more rows
…
You can simple View(re_enrich@enriched_result) for the first slot.

x <- re_enrich@enriched_result # Get the re-enrichment result table
table(x$Cluster) # You can see all enriched results splited into 17 clusters

 Cluster_1 Cluster_10 Cluster_11 Cluster_12 Cluster_13 Cluster_14 Cluster_15 
        10          4          3          5          2          1          4 
Cluster_16  Cluster_2  Cluster_3  Cluster_4  Cluster_5  Cluster_6  Cluster_7 
         3         10         10         10         10         10         10 
 Cluster_8  Cluster_9 
         7          4 

x

# A tibble: 103 × 7
   Description                          ID    Count Cluster   PCT    Padj geneID
   <chr>                                <chr> <int> <chr>   <dbl>   <dbl> <chr> 
 1 synaptic transmission, glutamatergic GO:0…    19 Cluste…   4.2 8.10e-8 ATP1A…
 2 regulation of synaptic transmission… GO:0…    16 Cluste…   3.5 8.10e-8 ATP1A…
 3 modulation of chemical synaptic tra… GO:0…    39 Cluste…   8.5 8.10e-8 ACHE,…
 4 regulation of trans-synaptic signal… GO:0…    39 Cluste…   8.5 8.10e-8 ACHE,…
 5 regulation of neuronal synaptic pla… GO:0…    12 Cluste…   2.6 4.20e-6 APOE,…
 6 glutamate receptor signaling pathway GO:0…    11 Cluste…   2.4 5.20e-6 GRIA4…
 7 ionotropic glutamate receptor signa… GO:0…     8 Cluste…   1.8 1.10e-5 GRIA4…
 8 regulation of synaptic plasticity    GO:0…    20 Cluste…   4.4 4.50e-5 APOE,…
 9 regulation of postsynaptic membrane… GO:0…    16 Cluste…   3.5 8.5 e-5 GABRD…
10 ligand-gated ion channel signaling … GO:1…     8 Cluste…   1.8 1.2 e-4 GRIA4…
# ℹ 93 more rows
…
