Re-enrich Enriched Results – EnrichGT Documents
…
You can use @, for example, x <- re_enrich@enriched_result returns a result table and x <- re_enrich@gt_object returns a gt object.

You can simple View(re_enrich@enriched_result) for the first slot.

x <- re_enrich@enriched_result # Get the re-enrichment result table
table(x$Cluster) # You can see all enriched results splited into 17 clusters

 Cluster_1 Cluster_10  Cluster_2  Cluster_3  Cluster_4  Cluster_5  Cluster_6 
        10          3         10         10         10         10          4 
 Cluster_7  Cluster_8  Cluster_9 
         4          5          1 

x

# A tibble: 67 × 7
   Description                          ID    Count Cluster   PCT    Padj geneID
   <chr>                                <chr> <int> <chr>   <dbl>   <dbl> <chr> 
 1 synaptic transmission, glutamatergic GO:0…    19 Cluste…   4.2 8.10e-8 ATP1A…
 2 regulation of synaptic transmission… GO:0…    16 Cluste…   3.5 8.10e-8 ATP1A…
 3 modulation of chemical synaptic tra… GO:0…    39 Cluste…   8.5 8.10e-8 ACHE,…
 4 regulation of trans-synaptic signal… GO:0…    39 Cluste…   8.5 8.10e-8 ACHE,…
 5 synapse organization                 GO:0…    36 Cluste…   7.9 2.10e-6 ACHE,…
 6 regulation of neuronal synaptic pla… GO:0…    12 Cluste…   2.6 4.20e-6 APOE,…
 7 glutamate receptor signaling pathway GO:0…    11 Cluste…   2.4 5.20e-6 GRIA4…
 8 ionotropic glutamate receptor signa… GO:0…     8 Cluste…   1.8 1.10e-5 GRIA4…
 9 regulation of synaptic plasticity    GO:0…    20 Cluste…   4.4 4.50e-5 APOE,…
10 regulation of postsynaptic membrane… GO:0…    16 Cluste…   3.5 8.5 e-5 GABRD…
# ℹ 57 more rows
…
